epoch,loss,val_loss
0,4.536598249338567,3.1473188693063303
1,2.6864996245130897,2.9532175607848585
2,2.5418087262660265,2.7619383293285704
3,2.48484792932868,2.7292078838013767
4,2.45642795227468,2.7097201891112745
5,2.421849879436195,2.6655495752368057
6,2.3776846169494092,2.612122188534653
7,2.3379759918898344,2.563022446214107
8,2.293446477036923,2.5249818626203036
9,2.24722112249583,2.481948580658227
10,2.219761399086565,2.4543829173372504
11,2.182913114782423,2.42381709500363
12,2.173258537892252,2.4155659424631217
13,2.1537944287993014,2.4161599769926907
14,2.1469382625073195,2.4350738483562804
15,2.143837177194655,2.4138118718799793
16,2.128607032354921,2.420797691010592
17,2.130687558092177,2.384040485348618
18,2.1156978625804186,2.395683589734529
19,2.1132445032708347,2.3983534971872964
20,2.1076264986768365,2.383043050765991
21,2.09865214349702,2.3774200238679586
22,2.0903382720425725,2.391909210305465
23,2.0834900066256523,2.353735639337908
24,2.097014768049121,2.2912116050720215
25,1.9899303521960974,2.2666069666544595
26,1.965532414149493,2.2490937458841422
27,1.9645095812156796,2.2812552598484777
28,1.959262023679912,2.2438135084352995
29,1.9450964163988829,2.2293157953965035
30,1.939532071352005,2.2189341971748755
31,1.9313159817829728,2.227680055718673
32,1.9230230688117445,2.204275281805741
33,1.9212035238742828,2.190299305999488
34,1.907764513976872,2.1842139938421417
35,1.9008608269505203,2.1784285829778303
36,1.8965593869797885,2.191806625901607
37,1.88742999965325,2.2127096046481216
38,1.8827027692459524,2.173160425403662
39,1.8675603019073606,2.149787246135243
40,1.8672117330133915,2.1569475437465466
41,1.8647658536210656,2.139516232306497
42,1.8577538239769638,2.1207290741435267
43,1.8441466074436903,2.121898889541626
44,1.839837516658008,2.1084965028260885
45,1.8351504341699183,2.104744819172642
46,1.8379694540053606,2.127276426867435
47,1.8285988001152873,2.1184260259594834
48,1.8295404673554003,2.1609200908426653
49,1.8235335093922913,2.089167130620856
50,1.8159446041099727,2.11967592908625
51,1.8174559525214136,2.0816916122771145
52,1.8103437167592347,2.0830205992648474
53,1.842479459475726,2.351727318345455
54,2.1778646749444306,2.3699835810744974
55,2.0942839509807527,2.2815760102188376
56,2.0307523431256413,2.194986000395658
57,1.9814990172162652,2.2038184216147974
58,1.958136529661715,2.17460324471457
59,1.945395240560174,2.171294513501619
60,2.0026530288159847,2.2049363412355123
61,1.952290017157793,2.160277165864643
