epoch,loss,val_loss
0,67785.31163024902,73390.72190241228
1,45952.21868515015,8191.2521758497805
2,7478.8170738220215,7266.215589021382
3,6698.668047904968,6725.451214706689
4,6278.801687240601,6421.301295230263
5,5956.570372581482,6237.115311472039
6,5590.876223564148,5609.955737733005
7,5294.1874895095825,5438.522315309759
8,4897.501711845398,5136.084027206689
9,4501.176122665405,4552.223821271929
10,4136.615997314453,4012.973380105537
11,3689.1333389282227,4005.8732524671054
12,3347.6182594299316,3152.2040501644738
13,2897.7232661247253,3010.8628743489585
14,2494.258906841278,2386.3766168962447
15,2116.547584295273,2095.1070963541665
16,1777.0725674629211,1632.908138877467
17,1464.3614876270294,1237.624605948465
18,1212.4530744552612,1032.9983831037555
19,974.543096780777,816.620177151864
20,807.556881070137,707.7516080622088
21,693.3274317383766,557.7538237989994
22,656.403290271759,546.078703227796
23,595.171382188797,469.717041015625
24,568.3723832368851,459.60817035875823
25,558.407589495182,489.131691380551
26,561.4304566979408,464.4811674419202
27,533.2929884791374,472.81978567023026
28,524.8852570056915,474.0841348213062
29,528.832782626152,422.7917105691475
30,533.8347359895706,459.798110694216
31,516.0818159580231,509.8250063176741
32,525.9133099913597,422.20228014494245
33,507.77737259864807,429.67088076942844
34,511.85519444942474,413.5126578347725
35,503.5610346198082,449.3975171540913
36,506.3141642808914,392.63666574578536
37,496.24083185195923,413.88967520730534
38,485.4561908841133,417.9130040218956
39,482.6000053882599,383.14745130037005
40,473.3467314839363,381.57754944918446
41,462.7430616915226,387.5226911578262
42,462.522167801857,401.7968664336623
43,475.0907247662544,373.41909415261784
44,471.52139776945114,439.3503600003427
45,476.7500150501728,392.2835350705866
46,440.26326805353165,376.2415032637747
47,435.6980438232422,338.205795555784
48,428.1015712618828,358.32058769359924
49,424.9523918032646,393.9087652909128
50,427.2641108036041,326.22422710217927
51,419.8956785798073,373.57873267458194
52,417.03621739149094,316.92000432600054
53,418.3211897909641,341.20901221559757
54,395.3261818289757,300.2905894496985
55,389.8618963956833,327.1389952542489
56,387.37347292900085,297.5141740765488
57,383.66165924072266,336.85279551723545
58,384.1887442469597,283.64821263363484
59,383.49907529354095,399.0160281532689
60,383.69018679857254,275.4987774229886
61,352.94262194633484,270.85937714158445
62,347.9703373759985,280.49126501250686
63,347.6953136920929,257.2063218501576
64,336.3828135728836,328.3570915356017
65,342.3572834134102,251.33310284530907
66,328.6322703361511,257.04781247858415
67,319.5450720489025,283.4338566294888
68,316.2517050206661,226.55110837702165
69,304.5390411019325,304.9457456354509
70,324.8572686314583,220.45809213738693
71,292.85246178507805,235.0233304207785
72,287.7881061434746,257.4470252321478
73,277.96533542871475,212.09685275429175
74,274.95616230368614,200.42428321169135
75,275.6169424653053,193.4779157136616
76,258.0128072500229,190.80156225907174
77,249.5955930352211,179.64959529408236
78,249.15993827581406,290.7304299337822
79,261.72592693567276,158.4186647649397
80,233.60756808519363,152.51497690301193
81,228.8757209777832,143.97108272084017
82,220.15265779197216,176.42783422637405
83,220.47823737561703,137.5041582877176
84,214.0074920654297,158.7185626113624
85,214.85725870728493,124.88451265033923
86,218.80436116456985,141.94597023411802
87,205.89020069595426,127.16962258857593
88,190.02327850461006,112.84727652031079
89,203.27904945611954,122.75428156267132
90,198.78054878115654,113.86246704636959
91,186.4145695567131,136.42032074510004
92,185.37135362625122,102.92045164944832
93,176.6492708325386,103.10713811506305
94,169.86285370588303,103.50685708564625
95,175.29576241970062,101.64777053029914
96,163.53498548269272,93.04924198619106
97,171.22219669818878,97.34415616487202
98,171.48105055093765,104.00636585971765
99,157.4831356704235,113.17040105451618
