epoch,loss,val_loss
0,67328.54420471191,69324.24280427632
1,26582.00817489624,8101.893871641995
2,6605.956635475159,6278.494800233005
3,5708.781366825104,5593.608124314693
4,5144.898025512695,4848.997348718476
5,4577.384675741196,4560.865636992873
6,4152.666400909424,3832.3009868421054
7,3761.0675802230835,3507.8586939761512
8,3330.158486843109,3178.3972553453946
9,3050.395067214966,2771.4580206620067
10,2677.577367782593,2467.017025596217
11,2406.2481620311737,2301.9248903508774
12,2135.474569439888,2300.8334446957238
13,1922.7760224342346,1818.3911946614583
14,1691.7107325792313,1540.192566988761
15,1462.6060786247253,1311.7637147066887
16,1286.3745121955872,1205.5133420709979
17,1154.6257098913193,955.4371252227248
18,1015.8788234591484,845.7600686591968
19,931.4591954946518,790.6740947522616
20,864.2088992595673,716.2388787520559
21,848.9531913995743,679.2924922474643
22,780.5833098888397,656.5039533648575
23,732.1273823976517,609.0248338130482
24,710.9684338569641,600.1275206448739
25,676.1484467387199,560.9703711794134
26,644.6399887800217,524.0760455215186
27,620.5962250232697,527.2489773934348
28,601.8050113320351,483.89972673382675
29,575.9472123384476,484.31876868532413
30,557.5745718479156,460.9733897426672
31,549.4521489143372,477.62117539790637
32,526.8521019816399,432.80209939521654
33,521.9494582414627,436.2758681983278
34,505.01977801322937,440.2771788479989
35,477.9039593935013,469.9207501327782
36,465.99377977848053,440.1416085226494
37,460.92994993925095,404.6056920101768
38,460.865485727787,396.10527921977797
39,428.77991527318954,367.55041825143917
40,426.3108457326889,375.4155867727179
41,414.92081631720066,381.1961439701549
42,405.0540943145752,346.25518852367736
43,402.1902330517769,337.2487975003427
44,400.81490793824196,336.04658106753703
45,390.18655574321747,328.00930946751646
46,402.6404308080673,323.039361518726
47,353.5142180323601,307.97469878614993
48,355.21204274892807,301.7327061703331
49,346.2751754820347,322.0297972026624
50,331.6963416337967,318.69288876182156
51,320.4816143512726,284.9625110291598
52,313.7692930996418,271.87150145413585
53,317.5329096317291,265.89069915236087
54,299.915444791317,275.41843989857455
55,296.29331263899803,248.94152403714364
56,272.7786348760128,238.3090132328502
57,269.3495043814182,336.4920868455318
58,256.9553800225258,224.99099838524535
59,244.73912140727043,216.3215776410019
60,234.99941635131836,237.39682729620682
61,239.879576086998,297.6280078553317
62,227.7813102900982,192.32955236602248
63,210.74019926786423,206.72158920555785
64,205.25038052350283,177.51017359683388
65,191.96803718805313,177.4722895036664
66,180.91858315467834,156.43501710055168
67,174.03269968926907,171.31526050233003
68,166.88354688882828,140.26242065429688
69,162.92173893749714,148.22066163180168
70,143.925144135952,141.56023875454017
71,143.77095147967339,137.26517272413824
72,135.04990988969803,110.51649274324116
73,118.25342582166195,101.04102178205524
74,115.74761334061623,190.01958773428933
75,106.684529915452,93.23093079684074
76,98.09649623930454,97.49275060285602
77,96.50762490928173,79.12257532487835
78,86.3301094174385,70.86549036126388
79,80.45096042007208,65.46779164096765
80,75.4558347016573,61.581826059441816
81,70.40110255777836,66.78301593713593
82,67.8419837653637,53.381973668148646
83,60.81547325849533,47.961783492774295
84,57.79866357892752,44.88840451156884
85,56.16754183918238,51.57472369545385
86,52.92727908492088,41.08351754305656
87,49.58498035185039,48.99195466961777
88,47.28264794498682,42.982732806289405
89,47.0007139146328,36.725536045275234
90,43.206193163990974,35.02899966323585
91,43.22800304740667,33.3727120516593
92,44.36991488188505,31.629834526463558
93,42.351611994206905,32.44418790047629
94,40.34155949950218,30.507498289409437
95,37.11134274676442,29.134507062142355
96,39.15778698027134,38.52879320111191
97,36.53119821101427,30.901578367802134
98,35.61445224285126,27.78745744939436
99,35.07122550345957,28.867019117924205
100,39.5507752597332,30.54724703337017
101,34.19470711052418,27.810619354248047
102,33.0525450669229,25.766958872477215
103,31.14772338233888,25.412218528881407
104,34.02367243915796,26.196214809752348
105,33.421160381287336,24.986374871772632
106,34.249148946255445,32.026844593516564
107,32.36480449140072,39.66200062266567
108,31.57982058264315,23.084724760892097
109,28.566044308245182,23.217488004450214
110,28.379655491560698,24.470618432028253
111,28.407973766326904,21.72640598029421
112,26.643047720193863,22.195538537544117
113,27.738766945898533,23.931461099992717
114,26.375226062722504,21.151819563748543
115,29.913097370415926,25.7204364475451
116,26.440091095864773,20.094330335918226
117,25.682557459920645,19.871363857336213
118,24.86352820508182,19.620220251250686
119,24.35454484075308,36.068441692151524
120,25.076729454100132,20.41412611175002
121,23.91847349330783,21.83041957386753
122,25.209679823368788,18.49685337668971
123,23.07003366574645,18.07756417257744
124,23.781146373599768,22.044717621385004
125,23.03441329114139,18.61970419214483
126,21.60169008374214,16.86802956095913
127,21.84977302327752,24.51087436341403
128,24.85959730669856,19.41393785309373
129,21.54192098043859,21.900299975746556
130,23.49202312529087,16.958917182788515
131,21.810808651149273,19.808031115615577
132,21.77247265353799,19.530505230552272
133,20.947116445749998,15.422810972782603
134,20.05971861258149,19.310864532203006
135,20.318213544785976,15.129026663930793
136,20.82057417742908,14.786628388521963
137,19.469723196700215,15.849009497123852
138,18.897007467225194,16.72510620585659
139,20.64728558436036,14.455464179055733
140,19.156989868730307,14.315093927216111
141,20.32803802192211,14.76986689316599
142,19.23036819882691,15.124365137334456
143,19.13023391366005,13.199846050195527
144,18.831089286133647,15.866455078125
145,18.037799578160048,15.212094608106112
146,19.406514890491962,14.720406030353747
147,20.3259354904294,14.318698598627458
148,16.98240427672863,12.365270899053206
149,17.775006365031004,14.89474013813755
150,18.257586838677526,21.67722481175473
151,19.985559890046716,13.129989339594255
152,17.779002711176872,12.523822876445035
153,16.86718027596362,15.451799911365175
154,17.535905323922634,12.83311693291915
155,19.147526377812028,11.878885503400836
156,20.02614000812173,12.265640459562603
157,17.61020832322538,13.818926459864565
158,17.86009956896305,13.051730373449493
159,20.961849875748158,11.52392558047646
160,18.140215557068586,11.722830295562744
161,23.891703872941434,20.197937379803573
162,18.388210179284215,11.638961591218647
163,16.2121613714844,12.321787800705224
164,16.931212707422674,19.456353840075042
165,16.59382314234972,11.079485725938229
166,16.769732965156436,11.598960458186635
167,16.801745226606727,10.97790955660636
168,20.071247963234782,11.212468256030167
169,16.029827745631337,11.521275938602916
170,19.037319092079997,12.627011399520072
171,16.840362265706062,10.879350160297594
172,18.191097224131227,16.3966859181722
173,17.107119844295084,10.349413754647237
174,18.24895635806024,10.702358145462838
175,16.366342220455408,13.027704924867864
176,15.941367827355862,14.652121744657817
177,17.583958081901073,10.733014968403598
178,17.294888217933476,10.221939538654528
179,17.778319833800197,11.626559843096818
180,17.149800039827824,10.729437769505015
181,16.64232557080686,16.95173333820544
182,19.203912887722254,17.732091669450725
183,18.56322280690074,13.216897780435128
184,16.153005892410874,10.63077223928351
185,16.860299889929593,11.152190986432528
186,15.913465924561024,9.97070230517471
187,22.192013267427683,12.964104267588834
188,17.765083544887602,16.373607535111276
189,18.161916561424732,11.660072711476108
190,18.721198711544275,10.814533334029349
191,22.89320140518248,10.653143665246796
192,16.267257753759623,14.486895343713593
193,18.854467367753386,18.146266569171036
194,17.033001260831952,10.004589432164243
195,15.533934911713004,13.383544286092123
196,15.70959385111928,10.475207061098333
