epoch,loss,val_loss
0,5.185690340586007,4.2569739818573
1,3.381134462542832,3.03696878751119
2,2.632538734935224,2.7646500562366687
3,2.499705672264099,2.668566528119539
4,2.410047044046223,2.597077863258228
5,2.3238416644744575,2.4771020705239817
6,2.2121586557477713,2.3679611390097097
7,2.0721359024755657,2.2723525992611
8,1.9608617187477648,2.205393778650384
9,1.9295864626765251,2.185494439643726
10,1.9278929685242474,2.1953118642171225
11,1.932016826234758,2.1687667035219964
12,1.9211565162986517,2.1790830545258104
13,1.9076371588744223,2.1569089220281232
14,1.8968652333132923,2.162332346564845
15,1.9038380575366318,2.1645307582721376
16,1.925367551855743,2.181091178927505
17,1.9468471691943705,2.2316178438956276
18,2.04176477342844,2.367331776702613
19,2.1128446427173913,2.3379717709725365
20,2.0860896836966276,2.342788056323403
21,2.089775994885713,2.4284590294486597
22,2.1459387559443712,2.382575562125758
23,2.0862865527160466,2.3615277064474007
