epoch,loss,val_loss
0,67910.55009460449,74391.4727247807
1,65648.55099487305,64019.657209429824
2,27316.752321243286,6464.949844092654
3,6370.018271446228,6400.4107473273025
4,6070.485066413879,6435.1321014939695
5,5788.528263568878,6246.772512335527
6,5515.46550655365,5911.443402206689
7,5335.8322858810425,5849.910670230263
8,5145.091203689575,5850.989060786733
9,4919.970732688904,5505.493532415022
10,4778.600540161133,5232.433430989583
11,4559.307459354401,4817.543962445176
12,4345.097503662109,4608.095330489309
13,4134.30872297287,4512.628400836074
14,3943.6160941123962,3941.5885416666665
15,3695.9356393814087,3856.0224352384867
16,3488.1644773483276,3709.308777926261
17,3268.167746782303,3245.958808765077
18,2993.586877346039,3184.619316234923
19,2792.7367911338806,2862.8534642269738
20,2567.196578979492,2701.1228755482457
21,2387.588208913803,2396.6407277960525
22,2156.8701605796814,2154.303591008772
23,1986.150562286377,2036.8316500479714
24,1789.1625413298607,1877.5561759011787
25,1652.042965888977,1583.9022559450384
26,1455.2777462005615,1397.9529290450246
27,1295.0828590393066,1268.750612493147
28,1195.8506815433502,1065.4475857918724
29,1043.8990173339844,966.5756846645422
30,937.4319294691086,912.8137099952029
31,859.8336627483368,809.7500685307018
32,782.0777307748795,699.0350748697916
33,720.6893302202225,695.8827953673245
34,652.9558494091034,606.2289246676261
35,605.9269112348557,517.7213006270559
36,567.831589102745,485.7641237493147
37,527.1410619020462,489.48123222484924
38,502.3564285039902,498.6816074304413
39,483.78113609552383,416.03110276607043
40,499.20424860715866,407.4913265830592
41,479.5194916129112,473.2557961982593
42,491.10962361097336,474.6091297885828
43,477.18790751695633,456.373953836006
44,475.8038391470909,523.6520562422903
45,468.437093436718,439.568329392818
46,465.83020466566086,466.0859749777275
47,473.06530636548996,435.9051695706552
48,460.7558455467224,402.93244211297286
49,459.69092923402786,406.61910154108415
50,454.6473700404167,421.612892552426
51,466.0573051571846,403.1461593895628
52,462.440617620945,463.98702895850465
53,452.7902532219887,442.7351882666872
54,454.84631311893463,418.6264340584738
55,447.4225314259529,428.6874775133635
56,450.8886793255806,442.1933556272272
57,449.7662290930748,400.9565938313802
58,441.22521978616714,435.4157532809073
59,442.126117169857,381.4603758694833
60,436.3964167833328,383.7627247592859
61,437.84833216667175,418.30565870853894
62,447.7712177038193,386.48410301877743
63,436.537082195282,373.4236915989926
64,435.6059188246727,393.70320477402004
65,437.37600034475327,389.0121154785156
66,445.78677397966385,386.2694910952919
67,441.9392374455929,447.2357884457237
68,441.0880100131035,377.4100272195381
69,432.1863807439804,404.67240932531524
70,430.52762073278427,357.2824412563391
71,431.8324496150017,356.06687418619794
72,426.68780958652496,390.96056861208194
73,432.6127182841301,347.344492326703
74,426.61521685123444,352.0082295735677
75,428.9774792790413,359.9538849947745
76,422.14951860904694,377.9059972930373
77,430.81972908973694,348.51115819027547
78,416.45388811826706,346.79376274242736
79,411.3997874259949,349.2186041045607
80,414.0260297060013,340.6344358209978
81,410.1508572101593,338.66710702996505
82,408.5425503253937,367.2992762515419
83,409.0352296233177,351.67329326428865
84,407.7675330489874,347.14404082716555
85,401.6340664625168,352.5841396398712
86,400.8739441037178,353.88270220840184
87,411.514616727829,330.30977777849165
88,398.1052890121937,363.7173440498218
89,396.3047953248024,321.08272833573193
90,382.42231702804565,349.1598119903029
91,390.09007638692856,381.5654072008635
92,394.61243399977684,358.27032524242736
93,389.8223612308502,347.254035815858
94,377.4017382264137,310.1428950794956
95,375.6921121478081,314.5874767638089
96,378.54212325811386,334.35815108449833
97,372.7665237188339,310.1580526786938
98,386.35398387908936,315.6931639554208
99,390.39694806933403,301.79456583658856
100,386.0610277354717,361.978126927426
101,384.38694751262665,299.8971466599849
102,367.26655119657516,367.1704818993284
103,359.5792300105095,298.9188087864926
104,360.29674047231674,285.81842442562703
105,363.1301510334015,279.4406743635211
106,355.1180267930031,297.134147777892
107,356.0778366923332,277.2643860934073
108,354.4991620182991,279.5350775467722
109,350.0305383205414,275.93799095823056
110,353.51207011938095,288.5504567999589
111,343.7195825576782,258.7930431700589
112,340.8120891749859,261.22645327919406
113,340.50239568948746,311.3434699878358
114,340.9380102753639,270.79262020713406
115,346.12070912122726,249.78490381073533
116,339.0642023086548,249.75784355297424
117,327.8705660700798,259.73623255679485
118,324.99344766139984,253.52624806186608
119,326.6322118639946,253.0871587385211
120,329.7399190068245,249.65767415364584
121,317.9439793229103,244.1255744800233
122,314.02302637696266,237.33644907098068
123,315.57831501960754,247.32366675661322
124,309.39427587389946,271.6178015993353
125,308.05397740006447,264.4163090220669
126,302.0392563343048,227.18353030556128
127,315.60478079319,220.36247199878358
128,314.707817196846,214.17619404039885
129,298.9489442706108,230.57888606556673
130,288.45954743027687,208.77708783066063
131,290.2384162545204,211.40785511753015
132,289.77517929673195,209.6224797566732
133,300.24813854694366,218.29688838490267
134,286.52679497003555,208.23606872558594
135,280.6867668181658,294.67999963593064
136,291.4544105231762,209.46931484289337
137,284.32247373461723,205.91175333658853
138,280.55548959970474,206.06795863101357
139,268.9041638970375,232.53680366382264
140,285.01671516895294,200.86148258677702
141,269.5255902707577,197.4648916679516
142,259.23951058276,191.45475260416666
143,263.49462151527405,201.98255973949767
144,254.99541315436363,184.72967234829017
145,254.60036665201187,185.18704625179893
146,250.9945426285267,236.4548246149431
147,249.05894065648317,184.15523542437637
148,245.06109258532524,184.15436299641928
149,236.37383604049683,178.0734235529314
150,237.69997856020927,243.33137418512712
151,244.9027405232191,175.2127864904571
152,236.53347390890121,183.55664089269806
153,224.23478889465332,168.95507571571753
154,231.22555148601532,157.68404000265556
155,220.8181767165661,161.41954990855436
156,220.7640060186386,199.66991893032142
157,219.22176979482174,148.2814776771947
158,216.08275577425957,144.36918024431196
159,214.97892406582832,141.1150659929242
160,221.74357153475285,172.5973235013192
161,210.1272566318512,142.3171954238624
162,208.68277820944786,134.06101641738624
163,202.99093261361122,127.34446823387815
164,196.9341018795967,131.3085972300747
165,201.0083103775978,170.281917638946
166,208.29802092909813,147.33881445098342
167,197.0996042639017,129.4898672271193
168,189.96306490898132,129.5806077655993
169,185.57830706238747,133.35079755281149
170,186.05795212090015,123.81585679974472
171,193.73974499106407,136.27919461434348
172,188.64286649227142,130.6692522283186
173,182.44892460107803,135.5120330275151
174,183.6355857551098,146.97697582579497
175,190.15485382080078,145.97922234786185
176,193.43732120841742,129.54436265376577
177,187.67979460954666,133.18401898835836
178,192.5002448707819,159.85762425472862
179,189.80871260166168,129.9268485621402
180,192.4909828901291,128.05744666383978
